{
  "title": "บริษัทในเครือเข้ามอบสเปรย์ แอลกฮอล์",
  "slug": "บริษัทในเครือเข้ามอบสเปรย์ แอลกฮอล์",
  "date": "4 Apr 2022",
  "categories": [
    "general",
    "highlight"
  ],
  "imageCover": "/news/news-1-1.png",
  "imageCarousle": [
    "/news/news-1-1.png",
    "/news/news-1-2.png",
    "/news/news-1-3.png"
  ],
  "excerpt": "ประธานเจ้าหน้าที่บริหารบริษัท เพชรศรี จำกัด และบริษัทในเครือเข้ามอบสเปรย์ แอลกฮอล์ หน้ากากอนามัยและสายคล้องหน้ากาก จำนวน 1,000 ชุดให้กับเจ้าหน้าที่ รพ.สุราษฎร์ธานี เจ้าหน้าที่สาธารณสุข ประชาชน ที่มาฮีดวัคซีน ณ ศูนย์การค้าเซ็นทรัล สุราษฎร์ธานี",
  "body": "ประธานเจ้าหน้าที่บริหารบริษัท เพชรศรี จำกัด และบริษัทในเครือเข้ามอบสเปรย์ แอลกฮอล์ หน้ากากอนามัยและสายคล้องหน้ากาก จำนวน 1,000 ชุดให้กับเจ้าหน้าที่ รพ.สุราษฎร์ธานี เจ้าหน้าที่สาธารณสุข ประชาชน ที่มาฮีดวัคซีน ณ ศูนย์การค้าเซ็นทรัล สุราษฎร์ธานี"
}