{
  "title": "รางวัล Thailannd Awards 2020",
  "slug": "รางวัล Thailannd Awards 2020",
  "date": "4 Apr 2022",
  "categories": [
    "general",
    "highlight"
  ],
  "imageCover": "/news/news-3-1.png",
  "imageCarousle": [
    "/news/news-3-1.png",
    "/news/news-3-2.jpg",
    "/news/news-3-3.jpg"
  ],
  "excerpt": "บริษัท นิว ไบโอดีเซล จำกัด บริษัทในเครือ PCE บริษัท เพชรศรีวิชัย เอ็นเตอร์ไพรส์ จำกัด คว้ารางวัล Thailand Energy Awards 2020",
  "body": "บริษัท นิว ไบโอดีเซล จำกัด บริษัทในเครือ PCE บริษัท เพชรศรีวิชัย เอ็นเตอร์ไพรส์ จำกัด คว้ารางวัล Thailand Energy Awards 2020 จากการเข้าร่วมประกวดโครงการในปีแรก ด้านพลังงานทดแทน ประเภทโครงการเชื้อเพลิงชีวภาพ (Bifuel) จากกระทรวงพลังงาน และจากผลงานโครงการไบโอดีเซลจากน้ำมันปาล์ม ด้านการใช้พลังงานทดแทน รวมถึงลดการปล่อยก๊าซคาร์บอนไดออกไซด์ ด้วยจุดเด่นที่ไม่ทำลายสิ่งแวดล้อม สู่การประกวดเวทีระดับอาเซียนสามารถคว้ารางวัลอย่างต่อเนื่องจาก Asean Energy Awards 2020"
}