{
  "title": "Lorem ipsum dolor sit amet",
  "slug": "slug3",
  "description": "Lorem ipsum dolor sit amet, consectetur adipiscing elit. Enim nisi, volutpat arcu ut. Consectetur amet faucibus eu lorem vestibulum, aliquam vestibulum diam, adipiscing. Varius sit arcu pulvinar ac, amet maecenas mauris eu ut. Commodo vel elit",
  "image": [
    { "title": "Lorem ipsum", "image": "/png/services/services-1.png" },
    { "title": "Lorem ipsum", "image": "/png/services/services-2.png" }
  ]
}