{
  "title": "Lorem ipsum dolor sit amet",
  "slug": "slug2",
  "description": "Lorem ipsum dolor sit amet, consectetur adipiscing elit. Enim nisi, volutpat arcu ut. Consectetur amet faucibus eu lorem vestibulum, aliquam vestibulum diam, adipiscing. Varius sit arcu pulvinar ac, amet maecenas mauris eu ut. Commodo vel elit",
  "image": [
    { "title": "Lorem ipsum", "image": "/png/product/product-detail-1.png" },
    { "title": "Lorem ipsum", "image": "/png/product/product-detail-2.png" }
  ],
  "img": "/png/product/product-2.png",
  "imgSquare": "/png/product/product-square.png",
  "longDesc": "Lorem ipsum dolor sit amet, consectetur adipiscing elit. Morbi ipsum at mauris\nmauris, porttitor purus laoreet dolor odio. Posuere curabitur urna a arcu tristiq\nmassa egestas. Vitae eu in mattis dignissim. Tincidunt lectus ultricies sem arcu,\nenim, mattis. Ipsum, suscipit est, nullam scelerisque. Aliquam in augue id tincid\nodio tellus sapien, mattis. Pulvinar hendrerit felis adipiscing pharetra a, massaee \naliquam sit vel. Imperdiet malesuada a semper consectetur. Elementum, etiamw\nauctor auctor mi enim eget commodo quisque viverra. Cras in malesuada felis,\na dolor nisl bibendum ullamcorper porttitor. In lectus commodo elit posuerexcv\ninterdum integer in maecenas. Sagittis nibh eget tristique quis in. Turpis sagittis\naliquet facilisi sit ut augue tempor. Orci, purus nunc elementum, tristique est di\nvenenatis."
}