{
  "title": "สินค้าของเรา",
  "description": "Lorem ipsum dolor sit amet, consectetur adipiscing elit. Enim nisi, volutpat arcu ut.\nConsectetur amet faucibus eu lorem vestibulum, aliquam vestibulum diam, adipiscing.\nVarius sit arcu pulvinar ac, amet maecenas mauris eu ut. Commodo vel elit",
  "subtitle": "Lorem ipsum dolor sit amet"
}