{
  "title": "เกี่ยวกับเรา",
  "description": "ตามที่ฝ่ายบริหารกลุ่มบริษัท เพชรศรีวิชัย เอ็นเตอร์ไพรส์ จำกัด ซึ่งประกอบด้วย บริษัท เพชรศรีวิชัย เอ็นเตอร์ไพรส์ จำกัด,บริษัท นิว ไบโอดีเซล จำกัด, บริษัท พี.ซี. มารีน (1992) จำกัด, \nบริษัท พี.เค.มารีน เทรดดิ้ง จำกัด, บริษัท เพชรศรีวิชัย จำกัด และบริษัท ปาโก้ เทรดดิ้ง จำกัดได้มีการทบทวนวิสัยทัศน์ พันธกิจ และแผนกลยุทธ์\nเพื่อให้การดำเนินธุรกิจและการบริหารงาน ของกลุ่มบริษัทฯ เป็นไปด้วยความราบรื่น มีประสิทธิภาพและประสิทธิผลสูงสุด\nจึงขอประกาศสื่อสาร และขอความร่วมมือให้ผู้บริหาร และพนักงานกลุ่มบริษัท เพชรศรีวิชัย เอ็นเตอร์ไพรส์ จำกัด\nตระหนักถึงการปฏิบัติงานให้สำเร็จตามวิสัยทัศน์ พันธกิจ และแผนกลยุทธ์",
  "storyInfo": {
    "logo": "/png/story/logo-story.png",
    "title": "Lorem ipsum dolor sit amet",
    "description": "Lorem ipsum dolor sit amet, consectetur adipiscing elit. Praesent eget et iaculis\ncondimentused orci sit sed accumsan. Hac nulla aenean augue tristique arcu.\nArcu enim id turpis scelerisqueturpis volutpat nibh. In dictumegestas tempus,\nenim. Aliquam odio sodales suspendisseduiscursus mattis elementum. Id quisque\nmassa feugiat\n\nLorem ipsum dolor sit amet, consectetur adipiscing elit. Praesent eget et iaculis\ncondimentused orci sit sed accumsan. Hac nulla aenean augue tristique arcu.\nArcu enim id turpis scelerisqueturpis volutpat nibh. In dictumegestas tempus,\nenim. Aliquam odio sodales suspendisseduiscursus mattis elementum. Id quisque\nmassa feugiat"
  },
  "history": {
    "title": "ประวัติความเป็นมา",
    "items": [
      {
        "year": 2556,
        "description": "วันที่ 20 พฤศจิกายน 2556 จดทะเบียนจัดตั้งบริษัท เพชรศรีวิชัย โฮลดิ้ง จำกัด ด้วยทุนจดทะเบียนเริ่มต้น 100 ล้านบาท เพื่อประกอบธุรกิจ การลงทุนในบริษัทอื่น (Holding Company)"
      },
      {
        "year": 2557,
        "description": "วันที่ 9 กันยายน 2557 บริษัท ปาโก้ เทรดดิ้ง จำกัด ได้เข้าถือหุ้นใน บริษัท เพชรศรีวิชัย โฮลดิ้ง จำกัด จำนวน 25%\n\nวันที่ 12 กันยายน 2557 บริษัท เพชรศรีวิชัย โฮลดิ้ง จำกัด ได้เข้าไปถือหุ้นใน บริษัท เพชรศรีวิชัย จำกัด จำนวน 25%"
      },
      {
        "year": 2558,
        "description": "วันที่ 16 ธันวาคม 2558 เพิ่มทุนจดทะเบียน บริษัท เพชรศรีวิชัย โฮลดิ้ง จากเดิม 100 ล้านบาท เป็น 600 ล้านบาท เพื่อประกอบธุรกิจ การลงทุนในบริษัทอื่น (Holding Company)"
      },
      {
        "year": 2559,
        "description": "วันที่ 14 พฤษภาคม 2559 บริษัท เพชรศรีวิชัย โฮลดิ้ง จำกัด ได้เข้าไปถือหุ้น ในบริษัท เซ้าท์ออยท์ทรานสปร์ต (1987) จำกัด จำนวน 25%\n\nวันที่ 23 พฤษภาคม 2559  บริษัท เพชรศรีวิชัย โฮลดิ้ง จำกัด ได้เข้าไปถือหุ้นใน บริษัท พี.ซี.มารีน (1992) จำกัด จำนวน 25%\n\nวันที่ 7 กันยายน 2559 บริษัท เพชรศรีวิชัย โฮลดิ้ง จำกัด ได้เข้าไปถือหุ้นบริษัทละจำนวน 25% ได้แก่  บริษัท พี.เค.มารีน เทรดดิ้ง จำกัด, บริษัท บลูไลน์มารีนไทม์ จำกัด, บริษัท เคทีพี โลจิสติกส์ จำกัด, บริษัท พี.เค ลอจิสติกส์ จำกัด"
      },
      {
        "year": 2565,
        "description": "วันที่ 8 กุมภาพันธ์ บริษัท เพชรศรีวิชัย โฮลดิ้ง จำกัด ได้เปลี่ยนชื่อเป็น บริาัท เพชรศรีวิชัย เอ็นเตอร์ไพรส์ จำกัด\n\nเดือน มีนาคม ปรับโครงสร้างในการถือหุ้นของแต่ละบริษัท เหลือเพียง 5 บริษัท คือ บริษัท เพชรศรีวิชัย จำกัด, บริษัท พี.เค.มารีน เทรดดิ้ง จำกัด, บริษัท พี.ซี.มารีน (1992) จำกัด, บริษัท ปาโก้ เทรดดิ้ง จำกัด, บริษัท นิว ไบโอดีเซล จำกัด โดยเข้าเป็นผู้ถือหุ้น 100 % ในแต่ละบริษัท"
      }
    ]
  },
  "update": {
    "title": "ข่าวสารจากเพชรศรีวิชัย",
    "description": "สามารถติดตามข่าวสารต่างๆ ของบริษัท เพชรศรีวิชัย จำกัด ได้จากบทความข่าวสารด้านล่างนี้"
  }
}