{
  "homeBanner": {
    "images": [
      "/png/home/banner.png",
      "/png/home/banner.png"
    ],
    "title": "PK MARINE TRADING CO.,LTD.",
    "slogan": "Let’s grow together",
    "description": "ผู้นำกลุ่มธุรกิจน้ำมันปาล์มแบบครบวงจรให้บริการตั้งแต่การผลิต จัดเก็บ ขนส่ง\nตลอดจนเป็นผู้จัดหาและจำหน่ายผลิตภัณฑ์จากน้ำมันปาล์มทั้งในประเทศไทย และต่างประเทศ"
  },
  "ourStory": {
    "title": "OUR STORY",
    "shortDesc": "Lorem ipsum dolor sit amet, consectetur adipiscing elit. Enim nisi, volutpat arcu ut. Consectetur amet faucibus eu lorem vestibulum, aliquam vestibulum diam, adipiscing. Varius sit arcu pulvinar ac, amet maecenas mauris eu ut. Commodovelelit",
    "description": "Lorem ipsum dolor sit amet, consectetur adipiscing elit. Morbi ipsum at mauris mauris, porttitor purus laoreet dolor odio. Posuere curabitur urna a arcu tristiq massa egestas. Vitae eu in mattis dignissim. Tincidunt lectus ultricies sem arcu, enim, mattis. Ipsum, suscipit est, nullam scelerisque. Aliquam in augue id tincid odio tellus sapien, mattis. Pulvinar hendrerit felis adipiscing pharetra a, massaee aliquam sit vel. Imperdiet malesuada a semper consectetur. Elementum, etiamw auctor auctor mi enim eget commodo quisque viverra. Cras in malesuada felis, a dolor nisl bibendum ullamcorper porttitor. In lectus commodo elit posuerexcv interdum integer in maecenas. Sagittis nibh eget tristique quis in. Turpis sagittis aliquet facilisi sit ut augue tempor. Orci, purus nunc elementum, tristique est di venenatis."
  },
  "ourServices": {
    "title": "OUR SERVICES",
    "shortDesc": "Lorem ipsum dolor sit amet, consectetur adipiscing elit. Enim nisi, volutpat arcu ut. Consectetur amet faucibus eu lorem vestibulum, aliquam vestibulum diam, adipiscing. Varius sit arcu pulvinar ac, amet maecenas mauris eu ut. Commodovelelit",
    "items": [
      {
        "title": "Lorem ipsum dolor sit amet",
        "description": "Lorem ipsum dolor sit amet, consectetur adipiscing elit. Enim nisi, volutpat arcu ut. Consectetur amet faucibus eu lorem vestibulum, aliquam vestibulum diam, adipiscing. Varius sit arcu pulvinar ac, amet maecenas mauris eu ut. Commodovelelit",
        "image": "/png/home/our-services-1.png",
        "to": "/#"
      },
      {
        "title": "Lorem ipsum dolor sit amet",
        "description": "Lorem ipsum dolor sit amet, consectetur adipiscing elit. Enim nisi, volutpat arcu ut. Consectetur amet faucibus eu lorem vestibulum, aliquam vestibulum diam, adipiscing. Varius sit arcu pulvinar ac, amet maecenas mauris eu ut. Commodovelelit",
        "image": "/png/home/our-services-2.png",
        "to": "/#"
      },
      {
        "title": "Lorem ipsum dolor sit amet",
        "description": "Lorem ipsum dolor sit amet, consectetur adipiscing elit. Enim nisi, volutpat arcu ut. Consectetur amet faucibus eu lorem vestibulum, aliquam vestibulum diam, adipiscing. Varius sit arcu pulvinar ac, amet maecenas mauris eu ut. Commodovelelit",
        "image": "/png/home/our-services-3.png",
        "to": "/#"
      }
    ]
  },
  "update": {
    "title": "UPDATES",
    "description": "สามารถติดตามข่าวสารต่างๆ ของบริษัท เพชรศรีวิชัย เอ็นเตอร์ไพร์ส จำกัด ได้จากบทความข่าวสารด้านล่างนี้"
  },
  "contactUs": {
    "title": "CONTACT US",
    "componyName": "PK MARINE TRADING CO.,LTD.",
    "componyAddress": "99/12-19 หมู่ 4 ถ.กาญจนวิถี ต.บางกุ้ง อ.เมือง จ.สุราษฎร์ธานี 84000"
  }
}